Mining China biodiversity from the National Specimen Information Infrastructure • rnsii
…
tibble::tibble(result1$data)

## # A tibble: 30 x 13
##    collectionID institutionCode collectionCode canonicalName  formattedName     
##    <chr>        <chr>           <chr>          <chr>          <chr>             
##  1 bca470dc     WUK             0357558        Artemisia arg… <em>Artemisia arg…
##  2 bca47178     WUK             0371743        Artemisia arg… <em>Artemisia arg…
##  3 bca47214     WUK             0365274        Artemisia arg… <em>Artemisia arg…
##  4 bca472b0     WUK             0356022        Artemisia arg… <em>Artemisia arg…
##  5 bca4734b     WUK             0405413        Artemisia arg… <em>Artemisia arg…
##  6 bca473e5     WUK             0354634        Artemisia arg… <em>Artemisia arg…
##  7 bdaf9f8f     WUK             0374515        Artemisia arg… <em>Artemisia arg…
##  8 bdafa02b     WUK             0360427        Artemisia arg… <em>Artemisia arg…
##  9 bdafa0c7     WUK             0288094        Artemisia arg… <em>Artemisia arg…
## 10 bdafa164     WUK             0282248        Artemisia arg… <em>Artemisia arg…
## # … with 20 more rows, and 8 more variables: chineseName <chr>,
## #   recordNumber <chr>, year <chr>, recordedBy <chr>, country <chr>,
## #   stateProvince <chr>, withPhoto <chr>, isType <chr>
…
